{
  "data": {
    "service": {
      "items": [],
      "totalCount": 2,
      "pageInfo": {
        "mode": "offset",
        "limit": 0,
        "offset": 0,
        "returned": 0,
        "hasMore": true,
        "nextOffset": 0,
        "effectiveSort": [
          "id:asc"
        ]
      }
    },
    "feature": {
      "items": [],
      "totalCount": 3,
      "pageInfo": {
        "mode": "offset",
        "limit": 0,
        "offset": 0,
        "returned": 0,
        "hasMore": true,
        "nextOffset": 0,
        "effectiveSort": [
          "id:asc"
        ]
      }
    }
  },
  "result_state": "valid",
  "schema": {
    "issues": [],
    "summary": {
      "errors": 0,
      "warnings": 0
    },
    "valid": true
  }
}
