{
  "result_state": "valid",
  "data": {
    "feature": {
      "items": [
        {
          "id": "FEAT-2",
          "slug": "beta"
        }
      ],
      "totalCount": 3,
      "pageInfo": {
        "limit": 1,
        "offset": 1,
        "returned": 1,
        "hasMore": true,
        "nextOffset": 2
      }
    }
  }
}
